%YAML 1.1
%TAG !u! tag:unity3d.com,2011:
--- !u!29 &1
OcclusionCullingSettings:
  m_ObjectHideFlags: 0
  serializedVersion: 2
  m_OcclusionBakeSettings:
    smallestOccluder: 5
    smallestHole: 0.25
    backfaceThreshold: 100
  m_SceneGUID: 00000000000000000000000000000000
  m_OcclusionCullingData: {fileID: 0}
--- !u!104 &2
RenderSettings:
  m_ObjectHideFlags: 0
  serializedVersion: 8
  m_Fog: 0
  m_FogColor: {r: 0.5, g: 0.5, b: 0.5, a: 1}
  m_FogMode: 3
  m_FogDensity: 0.01
  m_LinearFogStart: 0
  m_LinearFogEnd: 300
  m_AmbientSkyColor: {r: 0.212, g: 0.227, b: 0.259, a: 1}
  m_AmbientEquatorColor: {r: 0.114, g: 0.125, b: 0.133, a: 1}
  m_AmbientGroundColor: {r: 0.047, g: 0.043, b: 0.035, a: 1}
  m_AmbientIntensity: 1
  m_AmbientMode: 0
  m_SubtractiveShadowColor: {r: 0.42, g: 0.478, b: 0.627, a: 1}
  m_SkyboxMaterial: {fileID: 10304, guid: 0000000000000000f000000000000000, type: 0}
  m_HaloStrength: 0.5
  m_FlareStrength: 1
  m_FlareFadeSpeed: 3
  m_HaloTexture: {fileID: 0}
  m_SpotCookie: {fileID: 10001, guid: 0000000000000000e000000000000000, type: 0}
  m_DefaultReflectionMode: 0
  m_DefaultReflectionResolution: 128
  m_ReflectionBounces: 1
  m_ReflectionIntensity: 1
  m_CustomReflection: {fileID: 0}
  m_Sun: {fileID: 0}
  m_IndirectSpecularColor: {r: 0.44657898, g: 0.4964133, b: 0.5748178, a: 1}
--- !u!157 &3
LightmapSettings:
  m_ObjectHideFlags: 0
  serializedVersion: 11
  m_GIWorkflowMode: 0
  m_GISettings:
    serializedVersion: 2
    m_BounceScale: 1
    m_IndirectOutputScale: 1
    m_AlbedoBoost: 1
    m_TemporalCoherenceThreshold: 1
    m_EnvironmentLightingMode: 0
    m_EnableBakedLightmaps: 1
    m_EnableRealtimeLightmaps: 1
  m_LightmapEditorSettings:
    serializedVersion: 9
    m_Resolution: 2
    m_BakeResolution: 40
    m_TextureWidth: 1024
    m_TextureHeight: 1024
    m_AO: 0
    m_AOMaxDistance: 1
    m_CompAOExponent: 0
    m_CompAOExponentDirect: 0
    m_Padding: 2
    m_LightmapParameters: {fileID: 0}
    m_LightmapsBakeMode: 1
    m_TextureCompression: 1
    m_FinalGather: 0
    m_FinalGatherFiltering: 1
    m_FinalGatherRayCount: 1024
    m_ReflectionCompression: 2
    m_MixedBakeMode: 1
    m_BakeBackend: 0
    m_PVRSampling: 1
    m_PVRDirectSampleCount: 32
    m_PVRSampleCount: 500
    m_PVRBounces: 2
    m_PVRFiltering: 0
    m_PVRFilteringMode: 1
    m_PVRCulling: 1
    m_PVRFilteringGaussRadiusDirect: 1
    m_PVRFilteringGaussRadiusIndirect: 5
    m_PVRFilteringGaussRadiusAO: 2
    m_PVRFilteringAtrousColorSigma: 1
    m_PVRFilteringAtrousNormalSigma: 1
    m_PVRFilteringAtrousPositionSigma: 1
  m_LightingDataAsset: {fileID: 0}
  m_UseShadowmask: 0
--- !u!196 &4
NavMeshSettings:
  serializedVersion: 2
  m_ObjectHideFlags: 0
  m_BuildSettings:
    serializedVersion: 2
    agentTypeID: 0
    agentRadius: 0.5
    agentHeight: 2
    agentSlope: 45
    agentClimb: 0.4
    ledgeDropHeight: 0
    maxJumpAcrossDistance: 0
    minRegionArea: 2
    manualCellSize: 0
    cellSize: 0.16666667
    manualTileSize: 0
    tileSize: 256
    accuratePlacement: 0
  m_NavMeshData: {fileID: 0}
--- !u!1 &33271923
GameObject:
  m_ObjectHideFlags: 0
  m_PrefabParentObject: {fileID: 188750, guid: e7a9a9223389ed54e84182a60e3aaa03, type: 2}
  m_PrefabInternal: {fileID: 1392656304}
  serializedVersion: 5
  m_Component:
  - component: {fileID: 33271924}
  - component: {fileID: 33271926}
  - component: {fileID: 33271925}
  m_Layer: 0
  m_Name: filing-cabinet-drawer
  m_TagString: Untagged
  m_Icon: {fileID: 0}
  m_NavMeshLayer: 0
  m_StaticEditorFlags: 0
  m_IsActive: 1
--- !u!4 &33271924
Transform:
  m_ObjectHideFlags: 0
  m_PrefabParentObject: {fileID: 498124, guid: e7a9a9223389ed54e84182a60e3aaa03, type: 2}
  m_PrefabInternal: {fileID: 1392656304}
  m_GameObject: {fileID: 33271923}
  m_LocalRotation: {x: 0, y: 0, z: 0, w: 1}
  m_LocalPosition: {x: -0.0024410652, y: 0, z: -0.030099997}
  m_LocalScale: {x: 1, y: 1, z: 1}
  m_Children: []
  m_Father: {fileID: 1737636739}
  m_RootOrder: 0
  m_LocalEulerAnglesHint: {x: 0, y: 0, z: 0}
--- !u!23 &33271925
MeshRenderer:
  m_ObjectHideFlags: 0
  m_PrefabParentObject: {fileID: 2366248, guid: e7a9a9223389ed54e84182a60e3aaa03,
    type: 2}
  m_PrefabInternal: {fileID: 1392656304}
  m_GameObject: {fileID: 33271923}
  m_Enabled: 1
  m_CastShadows: 1
  m_ReceiveShadows: 1
  m_MotionVectors: 1
  m_LightProbeUsage: 1
  m_ReflectionProbeUsage: 1
  m_Materials:
  - {fileID: 2100000, guid: faa1a87b9aecce54c82bf42c2e9fd66f, type: 2}
  m_StaticBatchInfo:
    firstSubMesh: 0
    subMeshCount: 0
  m_StaticBatchRoot: {fileID: 0}
  m_ProbeAnchor: {fileID: 0}
  m_LightProbeVolumeOverride: {fileID: 0}
  m_ScaleInLightmap: 1
  m_PreserveUVs: 0
  m_IgnoreNormalsForChartDetection: 0
  m_ImportantGI: 0
  m_SelectedEditorRenderState: 3
  m_MinimumChartSize: 4
  m_AutoUVMaxDistance: 0.5
  m_AutoUVMaxAngle: 89
  m_LightmapParameters: {fileID: 0}
  m_SortingLayerID: 0
  m_SortingLayer: 0
  m_SortingOrder: 0
--- !u!33 &33271926
MeshFilter:
  m_ObjectHideFlags: 0
  m_PrefabParentObject: {fileID: 3397304, guid: e7a9a9223389ed54e84182a60e3aaa03,
    type: 2}
  m_PrefabInternal: {fileID: 1392656304}
  m_GameObject: {fileID: 33271923}
  m_Mesh: {fileID: 4300000, guid: f64f8f9c1d37329428f978b14cc21d27, type: 3}
--- !u!1 &117117145
GameObject:
  m_ObjectHideFlags: 0
  m_PrefabParentObject: {fileID: 142306, guid: e7a9a9223389ed54e84182a60e3aaa03, type: 2}
  m_PrefabInternal: {fileID: 1392656304}
  serializedVersion: 5
  m_Component:
  - component: {fileID: 117117146}
  - component: {fileID: 117117148}
  - component: {fileID: 117117147}
  m_Layer: 0
  m_Name: filing-cabinet-drawer (3)
  m_TagString: Untagged
  m_Icon: {fileID: 0}
  m_NavMeshLayer: 0
  m_StaticEditorFlags: 0
  m_IsActive: 1
--- !u!4 &117117146
Transform:
  m_ObjectHideFlags: 0
  m_PrefabParentObject: {fileID: 450566, guid: e7a9a9223389ed54e84182a60e3aaa03, type: 2}
  m_PrefabInternal: {fileID: 1392656304}
  m_GameObject: {fileID: 117117145}
  m_LocalRotation: {x: 0, y: 0, z: 0, w: 1}
  m_LocalPosition: {x: -0.0073410687, y: -0, z: 0.0336}
  m_LocalScale: {x: 1, y: 1, z: 1}
  m_Children: []
  m_Father: {fileID: 1737636739}
  m_RootOrder: 3
  m_LocalEulerAnglesHint: {x: 0, y: 0, z: 0}
--- !u!23 &117117147
MeshRenderer:
  m_ObjectHideFlags: 0
  m_PrefabParentObject: {fileID: 2328594, guid: e7a9a9223389ed54e84182a60e3aaa03,
    type: 2}
  m_PrefabInternal: {fileID: 1392656304}
  m_GameObject: {fileID: 117117145}
  m_Enabled: 1
  m_CastShadows: 1
  m_ReceiveShadows: 1
  m_MotionVectors: 1
  m_LightProbeUsage: 1
  m_ReflectionProbeUsage: 1
  m_Materials:
  - {fileID: 2100000, guid: faa1a87b9aecce54c82bf42c2e9fd66f, type: 2}
  m_StaticBatchInfo:
    firstSubMesh: 0
    subMeshCount: 0
  m_StaticBatchRoot: {fileID: 0}
  m_ProbeAnchor: {fileID: 0}
  m_LightProbeVolumeOverride: {fileID: 0}
  m_ScaleInLightmap: 1
  m_PreserveUVs: 0
  m_IgnoreNormalsForChartDetection: 0
  m_ImportantGI: 0
  m_SelectedEditorRenderState: 3
  m_MinimumChartSize: 4
  m_AutoUVMaxDistance: 0.5
  m_AutoUVMaxAngle: 89
  m_LightmapParameters: {fileID: 0}
  m_SortingLayerID: 0
  m_SortingLayer: 0
  m_SortingOrder: 0
--- !u!33 &117117148
MeshFilter:
  m_ObjectHideFlags: 0
  m_PrefabParentObject: {fileID: 3399752, guid: e7a9a9223389ed54e84182a60e3aaa03,
    type: 2}
  m_PrefabInternal: {fileID: 1392656304}
  m_GameObject: {fileID: 117117145}
  m_Mesh: {fileID: 4300000, guid: f64f8f9c1d37329428f978b14cc21d27, type: 3}
--- !u!1 &165989137
GameObject:
  m_ObjectHideFlags: 0
  m_PrefabParentObject: {fileID: 0}
  m_PrefabInternal: {fileID: 0}
  serializedVersion: 5
  m_Component:
  - component: {fileID: 165989139}
  - component: {fileID: 165989138}
  m_Layer: 0
  m_Name: Directional Light
  m_TagString: Untagged
  m_Icon: {fileID: 0}
  m_NavMeshLayer: 0
  m_StaticEditorFlags: 0
  m_IsActive: 1
--- !u!108 &165989138
Light:
  m_ObjectHideFlags: 0
  m_PrefabParentObject: {fileID: 0}
  m_PrefabInternal: {fileID: 0}
  m_GameObject: {fileID: 165989137}
  m_Enabled: 1
  serializedVersion: 8
  m_Type: 1
  m_Color: {r: 1, g: 0.95686275, b: 0.8392157, a: 1}
  m_Intensity: 1
  m_Range: 10
  m_SpotAngle: 30
  m_CookieSize: 10
  m_Shadows:
    m_Type: 1
    m_Resolution: -1
    m_CustomResolution: -1
    m_Strength: 1
    m_Bias: 0
    m_NormalBias: 0
    m_NearPlane: 0.1
  m_Cookie: {fileID: 0}
  m_DrawHalo: 0
  m_Flare: {fileID: 0}
  m_RenderMode: 0
  m_CullingMask:
    serializedVersion: 2
    m_Bits: 4294967295
  m_Lightmapping: 4
  m_AreaSize: {x: 1, y: 1}
  m_BounceIntensity: 1
  m_ColorTemperature: 6570
  m_UseColorTemperature: 0
  m_ShadowRadius: 0
  m_ShadowAngle: 0
--- !u!4 &165989139
Transform:
  m_ObjectHideFlags: 0
  m_PrefabParentObject: {fileID: 0}
  m_PrefabInternal: {fileID: 0}
  m_GameObject: {fileID: 165989137}
  m_LocalRotation: {x: 0.40821794, y: -0.23456973, z: 0.109381676, w: 0.87542605}
  m_LocalPosition: {x: 0, y: 3, z: 0}
  m_LocalScale: {x: 1, y: 1, z: 1}
  m_Children: []
  m_Father: {fileID: 0}
  m_RootOrder: 4
  m_LocalEulerAnglesHint: {x: 0, y: 0, z: 0}
--- !u!1 &538052016
GameObject:
  m_ObjectHideFlags: 0
  m_PrefabParentObject: {fileID: 100000, guid: 11712cacaa7a29a4da7070bf78c815cd, type: 3}
  m_PrefabInternal: {fileID: 1611950953}
  serializedVersion: 5
  m_Component:
  - component: {fileID: 538052019}
  - component: {fileID: 538052018}
  - component: {fileID: 538052017}
  m_Layer: 0
  m_Name: swivel-chair
  m_TagString: Untagged
  m_Icon: {fileID: 0}
  m_NavMeshLayer: 0
  m_StaticEditorFlags: 0
  m_IsActive: 1
--- !u!23 &538052017
MeshRenderer:
  m_ObjectHideFlags: 0
  m_PrefabParentObject: {fileID: 2300000, guid: 11712cacaa7a29a4da7070bf78c815cd,
    type: 3}
  m_PrefabInternal: {fileID: 1611950953}
  m_GameObject: {fileID: 538052016}
  m_Enabled: 1
  m_CastShadows: 1
  m_ReceiveShadows: 1
  m_MotionVectors: 1
  m_LightProbeUsage: 1
  m_ReflectionProbeUsage: 1
  m_Materials:
  - {fileID: 2100000, guid: bf5b4a6376bb4da449573b1f9ac08720, type: 2}
  m_StaticBatchInfo:
    firstSubMesh: 0
    subMeshCount: 0
  m_StaticBatchRoot: {fileID: 0}
  m_ProbeAnchor: {fileID: 0}
  m_LightProbeVolumeOverride: {fileID: 0}
  m_ScaleInLightmap: 1
  m_PreserveUVs: 0
  m_IgnoreNormalsForChartDetection: 0
  m_ImportantGI: 0
  m_SelectedEditorRenderState: 3
  m_MinimumChartSize: 4
  m_AutoUVMaxDistance: 0.5
  m_AutoUVMaxAngle: 89
  m_LightmapParameters: {fileID: 0}
  m_SortingLayerID: 0
  m_SortingLayer: 0
  m_SortingOrder: 0
--- !u!33 &538052018
MeshFilter:
  m_ObjectHideFlags: 0
  m_PrefabParentObject: {fileID: 3300000, guid: 11712cacaa7a29a4da7070bf78c815cd,
    type: 3}
  m_PrefabInternal: {fileID: 1611950953}
  m_GameObject: {fileID: 538052016}
  m_Mesh: {fileID: 4300000, guid: 11712cacaa7a29a4da7070bf78c815cd, type: 3}
--- !u!4 &538052019
Transform:
  m_ObjectHideFlags: 0
  m_PrefabParentObject: {fileID: 400000, guid: 11712cacaa7a29a4da7070bf78c815cd, type: 3}
  m_PrefabInternal: {fileID: 1611950953}
  m_GameObject: {fileID: 538052016}
  m_LocalRotation: {x: -0.60048425, y: 0.3733882, z: 0.3733881, w: 0.60048413}
  m_LocalPosition: {x: -10.7, y: 0.17, z: -1.241631}
  m_LocalScale: {x: 100, y: 100, z: 100}
  m_Children: []
  m_Father: {fileID: 0}
  m_RootOrder: 1
  m_LocalEulerAnglesHint: {x: 0, y: 0, z: 0}
--- !u!1001 &874449245
Prefab:
  m_ObjectHideFlags: 0
  serializedVersion: 2
  m_Modification:
    m_TransformParent: {fileID: 0}
    m_Modifications:
    - target: {fileID: 400000, guid: 11712cacaa7a29a4da7070bf78c815cd, type: 3}
      propertyPath: m_LocalPosition.x
      value: -0
      objectReference: {fileID: 0}
    - target: {fileID: 400000, guid: 11712cacaa7a29a4da7070bf78c815cd, type: 3}
      propertyPath: m_LocalPosition.y
      value: 0.17
      objectReference: {fileID: 0}
    - target: {fileID: 400000, guid: 11712cacaa7a29a4da7070bf78c815cd, type: 3}
      propertyPath: m_LocalPosition.z
      value: -1.241631
      objectReference: {fileID: 0}
    - target: {fileID: 400000, guid: 11712cacaa7a29a4da7070bf78c815cd, type: 3}
      propertyPath: m_LocalRotation.x
      value: 0.27190393
      objectReference: {fileID: 0}
    - target: {fileID: 400000, guid: 11712cacaa7a29a4da7070bf78c815cd, type: 3}
      propertyPath: m_LocalRotation.y
      value: 0.6527391
      objectReference: {fileID: 0}
    - target: {fileID: 400000, guid: 11712cacaa7a29a4da7070bf78c815cd, type: 3}
      propertyPath: m_LocalRotation.z
      value: 0.6527389
      objectReference: {fileID: 0}
    - target: {fileID: 400000, guid: 11712cacaa7a29a4da7070bf78c815cd, type: 3}
      propertyPath: m_LocalRotation.w
      value: -0.27190402
      objectReference: {fileID: 0}
    - target: {fileID: 400000, guid: 11712cacaa7a29a4da7070bf78c815cd, type: 3}
      propertyPath: m_RootOrder
      value: 7
      objectReference: {fileID: 0}
    - target: {fileID: 100000, guid: 11712cacaa7a29a4da7070bf78c815cd, type: 3}
      propertyPath: m_Name
      value: swivel-chair (1)
      objectReference: {fileID: 0}
    m_RemovedComponents: []
  m_ParentPrefab: {fileID: 100100000, guid: 11712cacaa7a29a4da7070bf78c815cd, type: 3}
  m_RootGameObject: {fileID: 997991205}
  m_IsPrefabParent: 0
--- !u!1 &997991205
GameObject:
  m_ObjectHideFlags: 0
  m_PrefabParentObject: {fileID: 100000, guid: 11712cacaa7a29a4da7070bf78c815cd, type: 3}
  m_PrefabInternal: {fileID: 874449245}
  serializedVersion: 5
  m_Component:
  - component: {fileID: 997991208}
  - component: {fileID: 997991207}
  - component: {fileID: 997991206}
  m_Layer: 0
  m_Name: swivel-chair (1)
  m_TagString: Untagged
  m_Icon: {fileID: 0}
  m_NavMeshLayer: 0
  m_StaticEditorFlags: 0
  m_IsActive: 1
--- !u!23 &997991206
MeshRenderer:
  m_ObjectHideFlags: 0
  m_PrefabParentObject: {fileID: 2300000, guid: 11712cacaa7a29a4da7070bf78c815cd,
    type: 3}
  m_PrefabInternal: {fileID: 874449245}
  m_GameObject: {fileID: 997991205}
  m_Enabled: 1
  m_CastShadows: 1
  m_ReceiveShadows: 1
  m_MotionVectors: 1
  m_LightProbeUsage: 1
  m_ReflectionProbeUsage: 1
  m_Materials:
  - {fileID: 2100000, guid: bf5b4a6376bb4da449573b1f9ac08720, type: 2}
  m_StaticBatchInfo:
    firstSubMesh: 0
    subMeshCount: 0
  m_StaticBatchRoot: {fileID: 0}
  m_ProbeAnchor: {fileID: 0}
  m_LightProbeVolumeOverride: {fileID: 0}
  m_ScaleInLightmap: 1
  m_PreserveUVs: 0
  m_IgnoreNormalsForChartDetection: 0
  m_ImportantGI: 0
  m_SelectedEditorRenderState: 3
  m_MinimumChartSize: 4
  m_AutoUVMaxDistance: 0.5
  m_AutoUVMaxAngle: 89
  m_LightmapParameters: {fileID: 0}
  m_SortingLayerID: 0
  m_SortingLayer: 0
  m_SortingOrder: 0
--- !u!33 &997991207
MeshFilter:
  m_ObjectHideFlags: 0
  m_PrefabParentObject: {fileID: 3300000, guid: 11712cacaa7a29a4da7070bf78c815cd,
    type: 3}
  m_PrefabInternal: {fileID: 874449245}
  m_GameObject: {fileID: 997991205}
  m_Mesh: {fileID: 4300000, guid: 11712cacaa7a29a4da7070bf78c815cd, type: 3}
--- !u!4 &997991208
Transform:
  m_ObjectHideFlags: 0
  m_PrefabParentObject: {fileID: 400000, guid: 11712cacaa7a29a4da7070bf78c815cd, type: 3}
  m_PrefabInternal: {fileID: 874449245}
  m_GameObject: {fileID: 997991205}
  m_LocalRotation: {x: 0.27190393, y: 0.6527391, z: 0.6527389, w: -0.27190402}
  m_LocalPosition: {x: -0, y: 0.17, z: -1.241631}
  m_LocalScale: {x: 100, y: 100, z: 100}
  m_Children: []
  m_Father: {fileID: 0}
  m_RootOrder: 7
  m_LocalEulerAnglesHint: {x: 0, y: 0, z: 0}
--- !u!1 &1270616594
GameObject:
  m_ObjectHideFlags: 0
  m_PrefabParentObject: {fileID: 100000, guid: 4dfd340ac24081a46939546c48b88123, type: 3}
  m_PrefabInternal: {fileID: 1987193820}
  serializedVersion: 5
  m_Component:
  - component: {fileID: 1270616597}
  - component: {fileID: 1270616596}
  - component: {fileID: 1270616595}
  m_Layer: 0
  m_Name: ceiling-fan
  m_TagString: Untagged
  m_Icon: {fileID: 0}
  m_NavMeshLayer: 0
  m_StaticEditorFlags: 0
  m_IsActive: 1
--- !u!23 &1270616595
MeshRenderer:
  m_ObjectHideFlags: 0
  m_PrefabParentObject: {fileID: 2300000, guid: 4dfd340ac24081a46939546c48b88123,
    type: 3}
  m_PrefabInternal: {fileID: 1987193820}
  m_GameObject: {fileID: 1270616594}
  m_Enabled: 1
  m_CastShadows: 0
  m_ReceiveShadows: 1
  m_MotionVectors: 1
  m_LightProbeUsage: 1
  m_ReflectionProbeUsage: 1
  m_Materials:
  - {fileID: 2100000, guid: d2ad2d40b440e7048ab18f6cfebffb1b, type: 2}
  m_StaticBatchInfo:
    firstSubMesh: 0
    subMeshCount: 0
  m_StaticBatchRoot: {fileID: 0}
  m_ProbeAnchor: {fileID: 0}
  m_LightProbeVolumeOverride: {fileID: 0}
  m_ScaleInLightmap: 1
  m_PreserveUVs: 0
  m_IgnoreNormalsForChartDetection: 0
  m_ImportantGI: 0
  m_SelectedEditorRenderState: 3
  m_MinimumChartSize: 4
  m_AutoUVMaxDistance: 0.5
  m_AutoUVMaxAngle: 89
  m_LightmapParameters: {fileID: 0}
  m_SortingLayerID: 0
  m_SortingLayer: 0
  m_SortingOrder: 0
--- !u!33 &1270616596
MeshFilter:
  m_ObjectHideFlags: 0
  m_PrefabParentObject: {fileID: 3300000, guid: 4dfd340ac24081a46939546c48b88123,
    type: 3}
  m_PrefabInternal: {fileID: 1987193820}
  m_GameObject: {fileID: 1270616594}
  m_Mesh: {fileID: 4300000, guid: 4dfd340ac24081a46939546c48b88123, type: 3}
--- !u!4 &1270616597
Transform:
  m_ObjectHideFlags: 0
  m_PrefabParentObject: {fileID: 400000, guid: 4dfd340ac24081a46939546c48b88123, type: 3}
  m_PrefabInternal: {fileID: 1987193820}
  m_GameObject: {fileID: 1270616594}
  m_LocalRotation: {x: 0.31237108, y: -0.6343695, z: -0.63436925, w: -0.31237057}
  m_LocalPosition: {x: 0.6669283, y: 13.46, z: 0.5643897}
  m_LocalScale: {x: 100, y: 100, z: 100}
  m_Children: []
  m_Father: {fileID: 0}
  m_RootOrder: 5
  m_LocalEulerAnglesHint: {x: 0, y: 0, z: 0}
--- !u!1 &1272547874
GameObject:
  m_ObjectHideFlags: 0
  m_PrefabParentObject: {fileID: 0}
  m_PrefabInternal: {fileID: 0}
  serializedVersion: 5
  m_Component:
  - component: {fileID: 1272547879}
  - component: {fileID: 1272547878}
  - component: {fileID: 1272547877}
  - component: {fileID: 1272547876}
  - component: {fileID: 1272547875}
  m_Layer: 0
  m_Name: Main Camera
  m_TagString: MainCamera
  m_Icon: {fileID: 0}
  m_NavMeshLayer: 0
  m_StaticEditorFlags: 0
  m_IsActive: 1
--- !u!81 &1272547875
AudioListener:
  m_ObjectHideFlags: 0
  m_PrefabParentObject: {fileID: 0}
  m_PrefabInternal: {fileID: 0}
  m_GameObject: {fileID: 1272547874}
  m_Enabled: 1
--- !u!124 &1272547876
Behaviour:
  m_ObjectHideFlags: 0
  m_PrefabParentObject: {fileID: 0}
  m_PrefabInternal: {fileID: 0}
  m_GameObject: {fileID: 1272547874}
  m_Enabled: 1
--- !u!92 &1272547877
Behaviour:
  m_ObjectHideFlags: 0
  m_PrefabParentObject: {fileID: 0}
  m_PrefabInternal: {fileID: 0}
  m_GameObject: {fileID: 1272547874}
  m_Enabled: 1
--- !u!20 &1272547878
Camera:
  m_ObjectHideFlags: 0
  m_PrefabParentObject: {fileID: 0}
  m_PrefabInternal: {fileID: 0}
  m_GameObject: {fileID: 1272547874}
  m_Enabled: 1
  serializedVersion: 2
  m_ClearFlags: 1
  m_BackGroundColor: {r: 0.19215687, g: 0.3019608, b: 0.4745098, a: 0.019607844}
  m_NormalizedViewPortRect:
    serializedVersion: 2
    x: 0
    y: 0
    width: 1
    height: 1
  near clip plane: 0.3
  far clip plane: 1000
  field of view: 60
  orthographic: 0
  orthographic size: 5
  m_Depth: -1
  m_CullingMask:
    serializedVersion: 2
    m_Bits: 4294967295
  m_RenderingPath: -1
  m_TargetTexture: {fileID: 0}
  m_TargetDisplay: 0
  m_TargetEye: 3
  m_HDR: 0
  m_AllowMSAA: 1
  m_ForceIntoRT: 0
  m_OcclusionCulling: 1
  m_StereoConvergence: 10
  m_StereoSeparation: 0.022
  m_StereoMirrorMode: 0
--- !u!4 &1272547879
Transform:
  m_ObjectHideFlags: 0
  m_PrefabParentObject: {fileID: 0}
  m_PrefabInternal: {fileID: 0}
  m_GameObject: {fileID: 1272547874}
  m_LocalRotation: {x: 0.0852554, y: 0, z: 0, w: 0.99635917}
  m_LocalPosition: {x: 0, y: 8.37, z: -23.1}
  m_LocalScale: {x: 1, y: 1, z: 1}
  m_Children: []
  m_Father: {fileID: 0}
  m_RootOrder: 0
  m_LocalEulerAnglesHint: {x: 0, y: 0, z: 0}
--- !u!1001 &1392656304
Prefab:
  m_ObjectHideFlags: 0
  serializedVersion: 2
  m_Modification:
    m_TransformParent: {fileID: 0}
    m_Modifications:
    - target: {fileID: 431024, guid: e7a9a9223389ed54e84182a60e3aaa03, type: 2}
      propertyPath: m_LocalPosition.x
      value: 11
      objectReference: {fileID: 0}
    - target: {fileID: 431024, guid: e7a9a9223389ed54e84182a60e3aaa03, type: 2}
      propertyPath: m_LocalPosition.y
      value: 3.86
      objectReference: {fileID: 0}
    - target: {fileID: 431024, guid: e7a9a9223389ed54e84182a60e3aaa03, type: 2}
      propertyPath: m_LocalPosition.z
      value: 1.1741067
      objectReference: {fileID: 0}
    - target: {fileID: 431024, guid: e7a9a9223389ed54e84182a60e3aaa03, type: 2}
      propertyPath: m_LocalRotation.x
      value: -0.5
      objectReference: {fileID: 0}
    - target: {fileID: 431024, guid: e7a9a9223389ed54e84182a60e3aaa03, type: 2}
      propertyPath: m_LocalRotation.y
      value: -0.5
      objectReference: {fileID: 0}
    - target: {fileID: 431024, guid: e7a9a9223389ed54e84182a60e3aaa03, type: 2}
      propertyPath: m_LocalRotation.z
      value: -0.5000001
      objectReference: {fileID: 0}
    - target: {fileID: 431024, guid: e7a9a9223389ed54e84182a60e3aaa03, type: 2}
      propertyPath: m_LocalRotation.w
      value: 0.49999994
      objectReference: {fileID: 0}
    - target: {fileID: 431024, guid: e7a9a9223389ed54e84182a60e3aaa03, type: 2}
      propertyPath: m_RootOrder
      value: 2
      objectReference: {fileID: 0}
    - target: {fileID: 192808, guid: e7a9a9223389ed54e84182a60e3aaa03, type: 2}
      propertyPath: m_Name
      value: filing-cabinet-empty
      objectReference: {fileID: 0}
    m_RemovedComponents: []
  m_ParentPrefab: {fileID: 100100000, guid: e7a9a9223389ed54e84182a60e3aaa03, type: 2}
  m_RootGameObject: {fileID: 1737636736}
  m_IsPrefabParent: 0
--- !u!1001 &1480433353
Prefab:
  m_ObjectHideFlags: 0
  serializedVersion: 2
  m_Modification:
    m_TransformParent: {fileID: 0}
    m_Modifications:
    - target: {fileID: 400000, guid: 69698e2a0173c5d43bc2a3cedb91cbb5, type: 3}
      propertyPath: m_LocalPosition.x
      value: 0.039593726
      objectReference: {fileID: 0}
    - target: {fileID: 400000, guid: 69698e2a0173c5d43bc2a3cedb91cbb5, type: 3}
      propertyPath: m_LocalPosition.y
      value: 1.5
      objectReference: {fileID: 0}
    - target: {fileID: 400000, guid: 69698e2a0173c5d43bc2a3cedb91cbb5, type: 3}
      propertyPath: m_LocalPosition.z
      value: 2.8
      objectReference: {fileID: 0}
    - target: {fileID: 400000, guid: 69698e2a0173c5d43bc2a3cedb91cbb5, type: 3}
      propertyPath: m_LocalRotation.x
      value: -0.5
      objectReference: {fileID: 0}
    - target: {fileID: 400000, guid: 69698e2a0173c5d43bc2a3cedb91cbb5, type: 3}
      propertyPath: m_LocalRotation.y
      value: -0.5
      objectReference: {fileID: 0}
    - target: {fileID: 400000, guid: 69698e2a0173c5d43bc2a3cedb91cbb5, type: 3}
      propertyPath: m_LocalRotation.z
      value: -0.5000001
      objectReference: {fileID: 0}
    - target: {fileID: 400000, guid: 69698e2a0173c5d43bc2a3cedb91cbb5, type: 3}
      propertyPath: m_LocalRotation.w
      value: 0.49999994
      objectReference: {fileID: 0}
    - target: {fileID: 400000, guid: 69698e2a0173c5d43bc2a3cedb91cbb5, type: 3}
      propertyPath: m_RootOrder
      value: 1
      objectReference: {fileID: 0}
    m_RemovedComponents: []
  m_ParentPrefab: {fileID: 100100000, guid: 69698e2a0173c5d43bc2a3cedb91cbb5, type: 3}
  m_RootGameObject: {fileID: 1599608141}
  m_IsPrefabParent: 0
--- !u!1 &1556381224
GameObject:
  m_ObjectHideFlags: 0
  m_PrefabParentObject: {fileID: 127518, guid: e7a9a9223389ed54e84182a60e3aaa03, type: 2}
  m_PrefabInternal: {fileID: 1392656304}
  serializedVersion: 5
  m_Component:
  - component: {fileID: 1556381225}
  - component: {fileID: 1556381227}
  - component: {fileID: 1556381226}
  m_Layer: 0
  m_Name: filing-cabinet-drawer (2)
  m_TagString: Untagged
  m_Icon: {fileID: 0}
  m_NavMeshLayer: 0
  m_StaticEditorFlags: 0
  m_IsActive: 1
--- !u!4 &1556381225
Transform:
  m_ObjectHideFlags: 0
  m_PrefabParentObject: {fileID: 451516, guid: e7a9a9223389ed54e84182a60e3aaa03, type: 2}
  m_PrefabInternal: {fileID: 1392656304}
  m_GameObject: {fileID: 1556381224}
  m_LocalRotation: {x: 0, y: 0, z: 0, w: 1}
  m_LocalPosition: {x: -0.0023910678, y: -0, z: 0.012279999}
  m_LocalScale: {x: 1, y: 1, z: 1}
  m_Children: []
  m_Father: {fileID: 1737636739}
  m_RootOrder: 2
  m_LocalEulerAnglesHint: {x: 0, y: 0, z: 0}
--- !u!23 &1556381226
MeshRenderer:
  m_ObjectHideFlags: 0
  m_PrefabParentObject: {fileID: 2303874, guid: e7a9a9223389ed54e84182a60e3aaa03,
    type: 2}
  m_PrefabInternal: {fileID: 1392656304}
  m_GameObject: {fileID: 1556381224}
  m_Enabled: 1
  m_CastShadows: 1
  m_ReceiveShadows: 1
  m_MotionVectors: 1
  m_LightProbeUsage: 1
  m_ReflectionProbeUsage: 1
  m_Materials:
  - {fileID: 2100000, guid: faa1a87b9aecce54c82bf42c2e9fd66f, type: 2}
  m_StaticBatchInfo:
    firstSubMesh: 0
    subMeshCount: 0
  m_StaticBatchRoot: {fileID: 0}
  m_ProbeAnchor: {fileID: 0}
  m_LightProbeVolumeOverride: {fileID: 0}
  m_ScaleInLightmap: 1
  m_PreserveUVs: 0
  m_IgnoreNormalsForChartDetection: 0
  m_ImportantGI: 0
  m_SelectedEditorRenderState: 3
  m_MinimumChartSize: 4
  m_AutoUVMaxDistance: 0.5
  m_AutoUVMaxAngle: 89
  m_LightmapParameters: {fileID: 0}
  m_SortingLayerID: 0
  m_SortingLayer: 0
  m_SortingOrder: 0
--- !u!33 &1556381227
MeshFilter:
  m_ObjectHideFlags: 0
  m_PrefabParentObject: {fileID: 3365428, guid: e7a9a9223389ed54e84182a60e3aaa03,
    type: 2}
  m_PrefabInternal: {fileID: 1392656304}
  m_GameObject: {fileID: 1556381224}
  m_Mesh: {fileID: 4300000, guid: f64f8f9c1d37329428f978b14cc21d27, type: 3}
--- !u!1 &1599608141
GameObject:
  m_ObjectHideFlags: 0
  m_PrefabParentObject: {fileID: 100000, guid: 69698e2a0173c5d43bc2a3cedb91cbb5, type: 3}
  m_PrefabInternal: {fileID: 1480433353}
  serializedVersion: 5
  m_Component:
  - component: {fileID: 1599608144}
  - component: {fileID: 1599608143}
  - component: {fileID: 1599608142}
  m_Layer: 0
  m_Name: desk
  m_TagString: Untagged
  m_Icon: {fileID: 0}
  m_NavMeshLayer: 0
  m_StaticEditorFlags: 0
  m_IsActive: 1
--- !u!23 &1599608142
MeshRenderer:
  m_ObjectHideFlags: 0
  m_PrefabParentObject: {fileID: 2300000, guid: 69698e2a0173c5d43bc2a3cedb91cbb5,
    type: 3}
  m_PrefabInternal: {fileID: 1480433353}
  m_GameObject: {fileID: 1599608141}
  m_Enabled: 1
  m_CastShadows: 1
  m_ReceiveShadows: 1
  m_MotionVectors: 1
  m_LightProbeUsage: 1
  m_ReflectionProbeUsage: 1
  m_Materials:
  - {fileID: 2100000, guid: 1d40344795265e54988ebc1267cb9417, type: 2}
  m_StaticBatchInfo:
    firstSubMesh: 0
    subMeshCount: 0
  m_StaticBatchRoot: {fileID: 0}
  m_ProbeAnchor: {fileID: 0}
  m_LightProbeVolumeOverride: {fileID: 0}
  m_ScaleInLightmap: 1
  m_PreserveUVs: 0
  m_IgnoreNormalsForChartDetection: 0
  m_ImportantGI: 0
  m_SelectedEditorRenderState: 3
  m_MinimumChartSize: 4
  m_AutoUVMaxDistance: 0.5
  m_AutoUVMaxAngle: 89
  m_LightmapParameters: {fileID: 0}
  m_SortingLayerID: 0
  m_SortingLayer: 0
  m_SortingOrder: 0
--- !u!33 &1599608143
MeshFilter:
  m_ObjectHideFlags: 0
  m_PrefabParentObject: {fileID: 3300000, guid: 69698e2a0173c5d43bc2a3cedb91cbb5,
    type: 3}
  m_PrefabInternal: {fileID: 1480433353}
  m_GameObject: {fileID: 1599608141}
  m_Mesh: {fileID: 4300000, guid: 69698e2a0173c5d43bc2a3cedb91cbb5, type: 3}
--- !u!4 &1599608144
Transform:
  m_ObjectHideFlags: 0
  m_PrefabParentObject: {fileID: 400000, guid: 69698e2a0173c5d43bc2a3cedb91cbb5, type: 3}
  m_PrefabInternal: {fileID: 1480433353}
  m_GameObject: {fileID: 1599608141}
  m_LocalRotation: {x: -0.5, y: -0.5, z: -0.5000001, w: 0.49999994}
  m_LocalPosition: {x: 0.039593726, y: 1.5, z: 2.8}
  m_LocalScale: {x: 100, y: 100, z: 100}
  m_Children: []
  m_Father: {fileID: 0}
  m_RootOrder: 2
  m_LocalEulerAnglesHint: {x: 0, y: 0, z: 0}
--- !u!1001 &1611950953
Prefab:
  m_ObjectHideFlags: 0
  serializedVersion: 2
  m_Modification:
    m_TransformParent: {fileID: 0}
    m_Modifications:
    - target: {fileID: 400000, guid: 11712cacaa7a29a4da7070bf78c815cd, type: 3}
      propertyPath: m_LocalPosition.x
      value: -10.7
      objectReference: {fileID: 0}
    - target: {fileID: 400000, guid: 11712cacaa7a29a4da7070bf78c815cd, type: 3}
      propertyPath: m_LocalPosition.y
      value: 0.17
      objectReference: {fileID: 0}
    - target: {fileID: 400000, guid: 11712cacaa7a29a4da7070bf78c815cd, type: 3}
      propertyPath: m_LocalPosition.z
      value: -1.241631
      objectReference: {fileID: 0}
    - target: {fileID: 400000, guid: 11712cacaa7a29a4da7070bf78c815cd, type: 3}
      propertyPath: m_LocalRotation.x
      value: -0.60048425
      objectReference: {fileID: 0}
    - target: {fileID: 400000, guid: 11712cacaa7a29a4da7070bf78c815cd, type: 3}
      propertyPath: m_LocalRotation.y
      value: 0.3733882
      objectReference: {fileID: 0}
    - target: {fileID: 400000, guid: 11712cacaa7a29a4da7070bf78c815cd, type: 3}
      propertyPath: m_LocalRotation.z
      value: 0.3733881
      objectReference: {fileID: 0}
    - target: {fileID: 400000, guid: 11712cacaa7a29a4da7070bf78c815cd, type: 3}
      propertyPath: m_LocalRotation.w
      value: 0.60048413
      objectReference: {fileID: 0}
    - target: {fileID: 400000, guid: 11712cacaa7a29a4da7070bf78c815cd, type: 3}
      propertyPath: m_RootOrder
      value: 1
      objectReference: {fileID: 0}
    m_RemovedComponents: []
  m_ParentPrefab: {fileID: 100100000, guid: 11712cacaa7a29a4da7070bf78c815cd, type: 3}
  m_RootGameObject: {fileID: 538052016}
  m_IsPrefabParent: 0
--- !u!1 &1737636736
GameObject:
  m_ObjectHideFlags: 0
  m_PrefabParentObject: {fileID: 192808, guid: e7a9a9223389ed54e84182a60e3aaa03, type: 2}
  m_PrefabInternal: {fileID: 1392656304}
  serializedVersion: 5
  m_Component:
  - component: {fileID: 1737636739}
  - component: {fileID: 1737636738}
  - component: {fileID: 1737636737}
  m_Layer: 0
  m_Name: filing-cabinet-empty
  m_TagString: Untagged
  m_Icon: {fileID: 0}
  m_NavMeshLayer: 0
  m_StaticEditorFlags: 0
  m_IsActive: 1
--- !u!23 &1737636737
MeshRenderer:
  m_ObjectHideFlags: 0
  m_PrefabParentObject: {fileID: 2397262, guid: e7a9a9223389ed54e84182a60e3aaa03,
    type: 2}
  m_PrefabInternal: {fileID: 1392656304}
  m_GameObject: {fileID: 1737636736}
  m_Enabled: 1
  m_CastShadows: 1
  m_ReceiveShadows: 1
  m_MotionVectors: 1
  m_LightProbeUsage: 1
  m_ReflectionProbeUsage: 1
  m_Materials:
  - {fileID: 2100000, guid: faa1a87b9aecce54c82bf42c2e9fd66f, type: 2}
  m_StaticBatchInfo:
    firstSubMesh: 0
    subMeshCount: 0
  m_StaticBatchRoot: {fileID: 0}
  m_ProbeAnchor: {fileID: 0}
  m_LightProbeVolumeOverride: {fileID: 0}
  m_ScaleInLightmap: 1
  m_PreserveUVs: 0
  m_IgnoreNormalsForChartDetection: 0
  m_ImportantGI: 0
  m_SelectedEditorRenderState: 3
  m_MinimumChartSize: 4
  m_AutoUVMaxDistance: 0.5
  m_AutoUVMaxAngle: 89
  m_LightmapParameters: {fileID: 0}
  m_SortingLayerID: 0
  m_SortingLayer: 0
  m_SortingOrder: 0
--- !u!33 &1737636738
MeshFilter:
  m_ObjectHideFlags: 0
  m_PrefabParentObject: {fileID: 3397908, guid: e7a9a9223389ed54e84182a60e3aaa03,
    type: 2}
  m_PrefabInternal: {fileID: 1392656304}
  m_GameObject: {fileID: 1737636736}
  m_Mesh: {fileID: 4300000, guid: 8912be031cfa0334a9966e74865280b8, type: 3}
--- !u!4 &1737636739
Transform:
  m_ObjectHideFlags: 0
  m_PrefabParentObject: {fileID: 431024, guid: e7a9a9223389ed54e84182a60e3aaa03, type: 2}
  m_PrefabInternal: {fileID: 1392656304}
  m_GameObject: {fileID: 1737636736}
  m_LocalRotation: {x: -0.5, y: -0.5, z: -0.5000001, w: 0.49999994}
  m_LocalPosition: {x: 11, y: 3.86, z: 1.1741067}
  m_LocalScale: {x: 100, y: 100, z: 100}
  m_Children:
  - {fileID: 33271924}
  - {fileID: 2000935713}
  - {fileID: 1556381225}
  - {fileID: 117117146}
  m_Father: {fileID: 0}
  m_RootOrder: 3
  m_LocalEulerAnglesHint: {x: 0, y: 0, z: 0}
--- !u!1 &1856971219
GameObject:
  m_ObjectHideFlags: 0
  m_PrefabParentObject: {fileID: 0}
  m_PrefabInternal: {fileID: 0}
  serializedVersion: 5
  m_Component:
  - component: {fileID: 1856971223}
  - component: {fileID: 1856971222}
  - component: {fileID: 1856971221}
  - component: {fileID: 1856971220}
  m_Layer: 0
  m_Name: Plane
  m_TagString: Untagged
  m_Icon: {fileID: 0}
  m_NavMeshLayer: 0
  m_StaticEditorFlags: 0
  m_IsActive: 1
--- !u!23 &1856971220
MeshRenderer:
  m_ObjectHideFlags: 0
  m_PrefabParentObject: {fileID: 0}
  m_PrefabInternal: {fileID: 0}
  m_GameObject: {fileID: 1856971219}
  m_Enabled: 1
  m_CastShadows: 1
  m_ReceiveShadows: 1
  m_MotionVectors: 1
  m_LightProbeUsage: 1
  m_ReflectionProbeUsage: 1
  m_Materials:
  - {fileID: 10303, guid: 0000000000000000f000000000000000, type: 0}
  m_StaticBatchInfo:
    firstSubMesh: 0
    subMeshCount: 0
  m_StaticBatchRoot: {fileID: 0}
  m_ProbeAnchor: {fileID: 0}
  m_LightProbeVolumeOverride: {fileID: 0}
  m_ScaleInLightmap: 1
  m_PreserveUVs: 1
  m_IgnoreNormalsForChartDetection: 0
  m_ImportantGI: 0
  m_SelectedEditorRenderState: 3
  m_MinimumChartSize: 4
  m_AutoUVMaxDistance: 0.5
  m_AutoUVMaxAngle: 89
  m_LightmapParameters: {fileID: 0}
  m_SortingLayerID: 0
  m_SortingLayer: 0
  m_SortingOrder: 0
--- !u!64 &1856971221
MeshCollider:
  m_ObjectHideFlags: 0
  m_PrefabParentObject: {fileID: 0}
  m_PrefabInternal: {fileID: 0}
  m_GameObject: {fileID: 1856971219}
  m_Material: {fileID: 0}
  m_IsTrigger: 0
  m_Enabled: 1
  serializedVersion: 2
  m_Convex: 0
  m_InflateMesh: 0
  m_SkinWidth: 0.01
  m_Mesh: {fileID: 10209, guid: 0000000000000000e000000000000000, type: 0}
--- !u!33 &1856971222
MeshFilter:
  m_ObjectHideFlags: 0
  m_PrefabParentObject: {fileID: 0}
  m_PrefabInternal: {fileID: 0}
  m_GameObject: {fileID: 1856971219}
  m_Mesh: {fileID: 10209, guid: 0000000000000000e000000000000000, type: 0}
--- !u!4 &1856971223
Transform:
  m_ObjectHideFlags: 0
  m_PrefabParentObject: {fileID: 0}
  m_PrefabInternal: {fileID: 0}
  m_GameObject: {fileID: 1856971219}
  m_LocalRotation: {x: 0, y: 0, z: 0, w: 1}
  m_LocalPosition: {x: 0.42391586, y: -0.85, z: -5.806472}
  m_LocalScale: {x: 9.625905, y: 9.625902, z: 9.625902}
  m_Children: []
  m_Father: {fileID: 0}
  m_RootOrder: 6
  m_LocalEulerAnglesHint: {x: 0, y: 0, z: 0}
--- !u!1001 &1987193820
Prefab:
  m_ObjectHideFlags: 0
  serializedVersion: 2
  m_Modification:
    m_TransformParent: {fileID: 0}
    m_Modifications:
    - target: {fileID: 400000, guid: 4dfd340ac24081a46939546c48b88123, type: 3}
      propertyPath: m_LocalPosition.x
      value: 0.6669283
      objectReference: {fileID: 0}
    - target: {fileID: 400000, guid: 4dfd340ac24081a46939546c48b88123, type: 3}
      propertyPath: m_LocalPosition.y
      value: 13.46
      objectReference: {fileID: 0}
    - target: {fileID: 400000, guid: 4dfd340ac24081a46939546c48b88123, type: 3}
      propertyPath: m_LocalPosition.z
      value: 0.5643897
      objectReference: {fileID: 0}
    - target: {fileID: 400000, guid: 4dfd340ac24081a46939546c48b88123, type: 3}
      propertyPath: m_LocalRotation.x
      value: 0.31237108
      objectReference: {fileID: 0}
    - target: {fileID: 400000, guid: 4dfd340ac24081a46939546c48b88123, type: 3}
      propertyPath: m_LocalRotation.y
      value: -0.6343695
      objectReference: {fileID: 0}
    - target: {fileID: 400000, guid: 4dfd340ac24081a46939546c48b88123, type: 3}
      propertyPath: m_LocalRotation.z
      value: -0.63436925
      objectReference: {fileID: 0}
    - target: {fileID: 400000, guid: 4dfd340ac24081a46939546c48b88123, type: 3}
      propertyPath: m_LocalRotation.w
      value: -0.31237057
      objectReference: {fileID: 0}
    - target: {fileID: 400000, guid: 4dfd340ac24081a46939546c48b88123, type: 3}
      propertyPath: m_RootOrder
      value: 5
      objectReference: {fileID: 0}
    - target: {fileID: 2300000, guid: 4dfd340ac24081a46939546c48b88123, type: 3}
      propertyPath: m_CastShadows
      value: 0
      objectReference: {fileID: 0}
    m_RemovedComponents: []
  m_ParentPrefab: {fileID: 100100000, guid: 4dfd340ac24081a46939546c48b88123, type: 3}
  m_RootGameObject: {fileID: 1270616594}
  m_IsPrefabParent: 0
--- !u!1 &2000935712
GameObject:
  m_ObjectHideFlags: 0
  m_PrefabParentObject: {fileID: 164534, guid: e7a9a9223389ed54e84182a60e3aaa03, type: 2}
  m_PrefabInternal: {fileID: 1392656304}
  serializedVersion: 5
  m_Component:
  - component: {fileID: 2000935713}
  - component: {fileID: 2000935715}
  - component: {fileID: 2000935714}
  m_Layer: 0
  m_Name: filing-cabinet-drawer (1)
  m_TagString: Untagged
  m_Icon: {fileID: 0}
  m_NavMeshLayer: 0
  m_StaticEditorFlags: 0
  m_IsActive: 1
--- !u!4 &2000935713
Transform:
  m_ObjectHideFlags: 0
  m_PrefabParentObject: {fileID: 439276, guid: e7a9a9223389ed54e84182a60e3aaa03, type: 2}
  m_PrefabInternal: {fileID: 1392656304}
  m_GameObject: {fileID: 2000935712}
  m_LocalRotation: {x: 0, y: 0, z: 0, w: 1}
  m_LocalPosition: {x: -0.012941067, y: -0, z: -0.008799999}
  m_LocalScale: {x: 1, y: 1, z: 1}
  m_Children: []
  m_Father: {fileID: 1737636739}
  m_RootOrder: 1
  m_LocalEulerAnglesHint: {x: 0, y: 0, z: 0}
--- !u!23 &2000935714
MeshRenderer:
  m_ObjectHideFlags: 0
  m_PrefabParentObject: {fileID: 2393836, guid: e7a9a9223389ed54e84182a60e3aaa03,
    type: 2}
  m_PrefabInternal: {fileID: 1392656304}
  m_GameObject: {fileID: 2000935712}
  m_Enabled: 1
  m_CastShadows: 1
  m_ReceiveShadows: 1
  m_MotionVectors: 1
  m_LightProbeUsage: 1
  m_ReflectionProbeUsage: 1
  m_Materials:
  - {fileID: 2100000, guid: faa1a87b9aecce54c82bf42c2e9fd66f, type: 2}
  m_StaticBatchInfo:
    firstSubMesh: 0
    subMeshCount: 0
  m_StaticBatchRoot: {fileID: 0}
  m_ProbeAnchor: {fileID: 0}
  m_LightProbeVolumeOverride: {fileID: 0}
  m_ScaleInLightmap: 1
  m_PreserveUVs: 0
  m_IgnoreNormalsForChartDetection: 0
  m_ImportantGI: 0
  m_SelectedEditorRenderState: 3
  m_MinimumChartSize: 4
  m_AutoUVMaxDistance: 0.5
  m_AutoUVMaxAngle: 89
  m_LightmapParameters: {fileID: 0}
  m_SortingLayerID: 0
  m_SortingLayer: 0
  m_SortingOrder: 0
--- !u!33 &2000935715
MeshFilter:
  m_ObjectHideFlags: 0
  m_PrefabParentObject: {fileID: 3330128, guid: e7a9a9223389ed54e84182a60e3aaa03,
    type: 2}
  m_PrefabInternal: {fileID: 1392656304}
  m_GameObject: {fileID: 2000935712}
  m_Mesh: {fileID: 4300000, guid: f64f8f9c1d37329428f978b14cc21d27, type: 3}
